…
#> 
#> $coach
#>               Name         Alma mater            Seasons             Record 
#>        "John Cook" "San Diego - 1979"               "32"          "883-176" 
#> 
#> $record
#>      Overall record      Overall streak   Conference record   Conference streak 
#>      "33-3 (0.917)"        "Streak: L1"      "19-1 (0.950)"        "Streak: L1" 
#>         Home record         Home streak         Road record         Road streak 
#>      "22-0 (1.000)"       "Streak: W45"      "10-2 (0.833)"        "Streak: W1" 
#>      Neutral record      Neutral streak Non-division record Non-division streak 
#>       "1-1 (0.500)"        "Streak: L1"       "0-0 (0.000)"         "Streak: 0" 
#> 
#> $schedule
#> # A tibble: 36 × 4
#>    Date       Opponent                 Result Attendance
#>    <chr>      <chr>                    <chr>  <chr>     
#>  1 08/27/2024 Kentucky @Louisville, KY W 3-1  9,280     
#>  2 08/30/2024 A&M-Corpus Christi       W 3-0  8,956     
#>  3 08/31/2024 TCU                      W 3-1  8,695     
#>  4 09/03/2024 @ SMU                    L 0-3  6,773     
#>  5 09/05/2024 The Citadel              W 3-0  8,607     
#>  6 09/07/2024 Montana St.              W 3-0  8,456     
#>  7 09/10/2024 Creighton                W 3-2  8,924     
#>  8 09/13/2024 Arizona St.              W 3-0  8,772     
#>  9 09/14/2024 Wichita St.              W 3-0  8,541     
#> 10 09/18/2024 Stanford                 W 3-0  8,952     
#> # ℹ 26 more rows
```
…
## Match stats

In addition to overall season summary stats, the NCAA provides
match-level data for both teams and individual players.

### Team match stats

To get overall match stats for a team in a particular season, use
`team_match_stats()`.

``` r
find_team_id(team = "Nebraska", year = 2024) |>
  team_match_stats()
#> # A tibble: 37 × 21
#>    Date      Team  Conference Opponent Result     S Kills Errors `Total Attacks`
#>    <chr>     <chr> <chr>      <chr>    <chr>  <dbl> <dbl>  <dbl>           <dbl>
#>  1 08/27/20… Nebr… Big Ten    Kentuck… W 3-1      4    47     16             120
#>  2 08/30/20… Nebr… Big Ten    A&M-Cor… W 3-0      3    48      7              96
#>  3 08/31/20… Nebr… Big Ten    TCU      W 3-1      4    55     25             141
#>  4 09/03/20… Nebr… Big Ten    @ SMU    L 0-3      3    36     18             105
#>  5 09/05/20… Nebr… Big Ten    The Cit… W 3-0      3    43      7              98
#>  6 09/07/20… Nebr… Big Ten    Montana… W 3-0      3    47     11              90
#>  7 09/10/20… Nebr… Big Ten    Creight… W 3-2      5    73     27             193
#>  8 09/13/20… Nebr… Big Ten    Arizona… W 3-0      3    48     12             113
#>  9 09/14/20… Nebr… Big Ten    Wichita… W 3-0      3    50      8              88
#> 10 09/18/20… Nebr… Big Ten    Stanford W 3-0      3    38     13              95
#> # ℹ 27 more rows
#> # ℹ 12 more variables: `Hit Pct` <dbl>, Assists <dbl>, Aces <dbl>, SErr <dbl>,
#> #   Digs <dbl>, RetAtt <dbl>, RErr <dbl>, `Block Solos` <dbl>,
#> #   `Block Assists` <dbl>, BErr <dbl>, PTS <dbl>, BHE <dbl>
```

### Player match stats

Similarly, you can get match stats for each player in a single match.
But to do this, you must know the NCAA’s contest ID for the particular
match or matches that you’re interested in. Use the
`find_team_contests()` function to return a data frame of all of the
matches for a particular team and season, along with the contest IDs.

``` r
(neb2024contests <- find_team_id(team = "Nebraska", year = 2024) |>
  find_team_contests())
#> # A tibble: 36 × 6
#>    date       team     opponent           result attendance contest
#>    <chr>      <chr>    <chr>              <chr>       <dbl> <chr>  
#>  1 08/27/2024 Nebraska Kentucky           W 3-1        9280 5362360
#>  2 08/30/2024 Nebraska A&M-Corpus Christi W 3-0        8956 5362361
#>  3 08/31/2024 Nebraska TCU                W 3-1        8695 5362362
#>  4 09/03/2024 Nebraska SMU                L 0-3        6773 5362363
#>  5 09/05/2024 Nebraska The Citadel        W 3-0        8607 5362364
#>  6 09/07/2024 Nebraska Montana St.        W 3-0        8456 5362365
#>  7 09/10/2024 Nebraska Creighton          W 3-2        8924 5362366
#>  8 09/13/2024 Nebraska Arizona St.        W 3-0        8772 5362367
#>  9 09/14/2024 Nebraska Wichita St.        W 3-0        8541 5362368
#> 10 09/18/2024 Nebraska Stanford           W 3-0        8952 5362369
#> # ℹ 26 more rows
```

Once we have the contest IDs, we can grab one and pass it to
`player_match_stats()`.

``` r
player_match_stats(contest = "6080708")
#> # A tibble: 25 × 26
#>    Season    Date       Team    Conference `Opponent Team` `Opponent Conference`
#>    <chr>     <date>     <chr>   <chr>      <chr>           <chr>                
#>  1 2024-2025 2024-12-19 Penn S… Big Ten    Nebraska        Big Ten              
#>  2 2024-2025 2024-12-19 Penn S… Big Ten    Nebraska        Big Ten              
#>  3 2024-2025 2024-12-19 Penn S… Big Ten    Nebraska        Big Ten              
#>  4 2024-2025 2024-12-19 Penn S… Big Ten    Nebraska        Big Ten              
#>  5 2024-2025 2024-12-19 Penn S… Big Ten    Nebraska        Big Ten              
#>  6 2024-2025 2024-12-19 Penn S… Big Ten    Nebraska        Big Ten              
#>  7 2024-2025 2024-12-19 Penn S… Big Ten    Nebraska        Big Ten              
#>  8 2024-2025 2024-12-19 Penn S… Big Ten    Nebraska        Big Ten              
#>  9 2024-2025 2024-12-19 Penn S… Big Ten    Nebraska        Big Ten              
#> 10 2024-2025 2024-12-19 Penn S… Big Ten    Nebraska        Big Ten              
#> # ℹ 15 more rows
#> # ℹ 20 more variables: Location <chr>, Number <dbl>, Player <chr>, P <chr>,
#> #   S <int>, Kills <int>, Errors <int>, TotalAttacks <int>, HitPct <dbl>,
#> #   Assists <int>, Aces <int>, SErr <int>, Digs <int>, RetAtt <int>,
#> #   RErr <int>, BlockSolos <int>, BlockAssists <int>, BErr <int>, PTS <dbl>,
#> #   BHE <int>
```
…
## Aggregating data

Though the season, match, and play-by-play data are useful at the
individual level, they can be more useful when aggregated. The
`group_stats()` function aggregates season, match, and play-by-play data
over multiple teams and/or years by applying the
`player_season_stats()`, `player_match_stats()`, or `match_pbp()` across
teams and years.

``` r
group_stats(teams = c("Nebraska", "Wisconsin"), year = 2023:2024, level = "season")
#> $playerdata
#> # A tibble: 54 × 30
#>    Season    Team   Conference Number Player Yr    Pos   Ht       GP    GS     S
#>    <chr>     <chr>  <chr>       <dbl> <chr>  <chr> <chr> <chr> <dbl> <dbl> <dbl>
#>  1 2023-2024 Nebra… Big Ten         2 Berge… Fr    S     6-1      35    35   121
#>  2 2023-2024 Nebra… Big Ten         5 Rebek… So    MB    6-4      32    31   105
#>  3 2023-2024 Nebra… Big Ten         6 Laney… Fr    L/DS  5-3      34    33   117
#>  4 2023-2024 Nebra… Big Ten         7 Maisi… So    L/DS  5-6      18     0    36
#>  5 2023-2024 Nebra… Big Ten         8 Lexi … Jr    L/DS  5-5      35     0   121
#>  6 2023-2024 Nebra… Big Ten         9 Kenne… Jr    S     6-0      29     0    96
#>  7 2023-2024 Nebra… Big Ten        11 Hayde… So    OH    6-2       9     0    10
#>  8 2023-2024 Nebra… Big Ten        13 Merri… Jr    OH    6-4      35    35   121
#>  9 2023-2024 Nebra… Big Ten        14 Ally … Jr    OH    6-5      30     2    87
#> 10 2023-2024 Nebra… Big Ten        15 Andi … Fr    MB    6-3      34    34   118
#> # ℹ 44 more rows
#> # ℹ 19 more variables: Kills <dbl>, Errors <dbl>, `Total Attacks` <dbl>,
#> #   `Hit Pct` <dbl>, Assists <dbl>, Aces <dbl>, SErr <dbl>, Digs <dbl>,
#> #   RetAtt <dbl>, RErr <dbl>, `Block Solos` <dbl>, `Block Assists` <dbl>,
#> #   BErr <dbl>, PTS <dbl>, BHE <dbl>, `Trpl Dbl` <dbl>, `Dbl Dbl` <dbl>,
#> #   Hometown <chr>, `High School` <chr>
…
We don’t have other examples, because these take a while to run.

There are also convenience functions `conference_stats()` and
`division_stats()` that automatically extract data for a particular
conference or NCAA division.

``` r
conference_stats(year = 2024, conf = "Big Ten", level = "season")
#> $playerdata
#> # A tibble: 274 × 29
#>    Season    Team     Conference Number Player        Yr    Pos   Ht    Hometown
#>    <chr>     <chr>    <chr>       <dbl> <chr>         <chr> <chr> <chr> <chr>   
#>  1 2024-2025 Illinois Big Ten         2 Raegen Reilly Sr    S     5-10  Sioux F…
#>  2 2024-2025 Illinois Big Ten         3 Lily Barry    So    L/DS  5-6   Emden, …
#>  3 2024-2025 Illinois Big Ten         4 Bianca May    So    S     5-8   Orland …
#>  4 2024-2025 Illinois Big Ten         5 Taylor de Bo… Fr    OH    6-4   Kelowna…
#>  5 2024-2025 Illinois Big Ten         8 Averie Herna… Jr    OH    6-2   Bloomin…
#>  6 2024-2025 Illinois Big Ten        10 Caroline Bar… Sr    L/DS  5-11  Napervi…
#>  7 2024-2025 Illinois Big Ten        11 Cari Bohm     So    MB    6-4   Ann Arb…
#>  8 2024-2025 Illinois Big Ten        12 Raina Terry   Sr    OH    6-1   Marengo…
#>  9 2024-2025 Illinois Big Ten        13 Kenzie Cogan  Fr    L/DS  5-7   Cincinn…
#> 10 2024-2025 Illinois Big Ten        16 Ashlyn Philp… Fr    MB    6-4   Greenvi…
#> # ℹ 264 more rows
#> # ℹ 20 more variables: `High School` <chr>, GP <dbl>, GS <dbl>, S <dbl>,
#> #   Kills <dbl>, Errors <dbl>, `Total Attacks` <dbl>, `Hit Pct` <dbl>,
#> #   Assists <dbl>, Aces <dbl>, SErr <dbl>, Digs <dbl>, RetAtt <dbl>,
#> #   RErr <dbl>, `Block Solos` <dbl>, `Block Assists` <dbl>, BErr <dbl>,
#> #   PTS <dbl>, BHE <dbl>, `Trpl Dbl` <dbl>
…
