Aggregate player statistics for a NCAA conference and seasons — conference_stats • ncaavolleyballr
…
    See also

    Other functions that aggregate statistics:
division_stats(),
group_stats()

    Examples

# \donttest{
conference_stats(year = 2024, conf = "Peach Belt", level = "season")
#> $playerdata
#> # A tibble: 81 × 29
#>    Season    Team    Conference Number Player         Yr    Pos   Ht    Hometown
#>    <chr>     <chr>   <chr>       <dbl> <chr>          <chr> <chr> <chr> <chr>   
#>  1 2024-2025 Augusta Peach Belt      2 Marah Zenner   Sr    S     5-5   ""      
#>  2 2024-2025 Augusta Peach Belt      3 Rylie Harris   Sr    L/DS  5-5   ""      
#>  3 2024-2025 Augusta Peach Belt      4 Giulia Rodrig… Sr    DS    5-3   "Boca R…
#>  4 2024-2025 Augusta Peach Belt      5 Mia Saavedra   So    S     5-10  ""      
#>  5 2024-2025 Augusta Peach Belt      7 Mikayla Kline  So    OH    5-10  ""      
#>  6 2024-2025 Augusta Peach Belt      8 Sophia Kruczko Sr    RS    6-3   ""      
#>  7 2024-2025 Augusta Peach Belt      9 Lauren Posa    Jr    RS    6-1   ""      
#>  8 2024-2025 Augusta Peach Belt     10 Abigail Levin… Jr    OH    5-11  ""      
#>  9 2024-2025 Augusta Peach Belt     13 Jada Sugutura… Sr    MH    6-1   ""      
#> 10 2024-2025 Augusta Peach Belt     14 Libby NIckels  Fr    L/DS  5-1   ""      
#> # ℹ 71 more rows
#> # ℹ 20 more variables: `High School` <chr>, GP <dbl>, GS <dbl>, S <dbl>,
#> #   Kills <dbl>, Errors <dbl>, `Total Attacks` <dbl>, `Hit Pct` <dbl>,
#> #   Assists <dbl>, Aces <dbl>, SErr <dbl>, Digs <dbl>, RetAtt <dbl>,
#> #   RErr <dbl>, `Block Solos` <dbl>, `Block Assists` <dbl>, BErr <dbl>,
#> #   PTS <dbl>, BHE <dbl>, `Trpl Dbl` <dbl>
…
