Aggregate player statistics and play-by-play information — group_stats • ncaavolleyballr
…
    See also

    Other functions that aggregate statistics:
conference_stats(),
division_stats()

    Examples

# \donttest{
group_stats(teams = c("Louisville", "Nebraska", "Penn St.", "Pittsburgh"),
year = 2024, level = "season")
#> $playerdata
#> # A tibble: 60 × 29
#>    Season    Team       Conference Number Player      Yr    Pos   Ht    Hometown
#>    <chr>     <chr>      <chr>       <dbl> <chr>       <chr> <chr> <chr> <chr>   
#>  1 2024-2025 Louisville ACC             3 Kamden Sch… So    L/DS  5-6   Villa H…
#>  2 2024-2025 Louisville ACC             4 Charitie L… Jr    OH    5-9   Dallas,…
#>  3 2024-2025 Louisville ACC             5 Elle Glock  Jr    S     6-1   Wahoo, …
#>  4 2024-2025 Louisville ACC             6 Sofia Mald… Sr    OH    6-0   Guadala…
#>  5 2024-2025 Louisville ACC             8 Nayelis Ca… Fr    S     6-0   Clermon…
#>  6 2024-2025 Louisville ACC            10 Phekran PK… Sr    MB    6-3   Sioux F…
#>  7 2024-2025 Louisville ACC            11 Hannah She… Jr    MB    6-1   Silver …
#>  8 2024-2025 Louisville ACC            12 Jessica Dr… So    L/DS  5-6   Cincinn…
#>  9 2024-2025 Louisville ACC            13 Cara Cresse Sr    MB    6-6   Ft. Way…
#> 10 2024-2025 Louisville ACC            14 Anna DeBeer Sr    OH    6-0   Louisvi…
#> # ℹ 50 more rows
#> # ℹ 20 more variables: `High School` <chr>, GP <dbl>, GS <dbl>, S <dbl>,
#> #   Kills <dbl>, Errors <dbl>, `Total Attacks` <dbl>, `Hit Pct` <dbl>,
#> #   Assists <dbl>, Aces <dbl>, SErr <dbl>, Digs <dbl>, RetAtt <dbl>,
#> #   RErr <dbl>, `Block Solos` <dbl>, `Block Assists` <dbl>, BErr <dbl>,
#> #   PTS <dbl>, BHE <dbl>, `Trpl Dbl` <dbl>
…
