Get started • ncaavolleyballr
…
#> 
#> $coach
#>               Name         Alma mater            Seasons             Record 
#>        "John Cook" "San Diego - 1979"               "32"          "883-176" 
#> 
#> $record
#>      Overall record      Overall streak   Conference record   Conference streak 
#>      "33-3 (0.917)"       "Streak: L1 "      "19-1 (0.950)"       "Streak: L1 " 
#>         Home record         Home streak         Road record         Road streak 
#>      "22-0 (1.000)"      "Streak: W45 "      "10-2 (0.833)"       "Streak: W1 " 
#>      Neutral record      Neutral streak Non-division record Non-division streak 
#>       "1-1 (0.500)"       "Streak: L1 "       "0-0 (0.000)"        "Streak: 0 " 
#> 
#> $schedule
#> # A tibble: 36 × 4
#>    Date       Opponent                 Result Attendance
#>    <chr>      <chr>                    <chr>  <chr>     
#>  1 08/27/2024 Kentucky @Louisville, KY W 3-1  9,280     
#>  2 08/30/2024 A&M-Corpus Christi       W 3-0  8,956     
#>  3 08/31/2024 TCU                      W 3-1  8,695     
#>  4 09/03/2024 @ SMU                    L 0-3  6,773     
#>  5 09/05/2024 The Citadel              W 3-0  8,607     
#>  6 09/07/2024 Montana St.              W 3-0  8,456     
#>  7 09/10/2024 Creighton                W 3-2  8,924     
#>  8 09/13/2024 Arizona St.              W 3-0  8,772     
#>  9 09/14/2024 Wichita St.              W 3-0  8,541     
#> 10 09/18/2024 Stanford                 W 3-0  8,952     
#> # ℹ 26 more rows
…
Match stats

In addition to overall season summary stats, the NCAA provides
match-level data for both teams and individual players.

Team match stats

To get overall match stats for a team in a particular season, use
team_match_stats().

find_team_id(team = "Nebraska", year = 2024) |>
  team_match_stats()
#> # A tibble: 36 × 23
#>    Season    Date       TeamID Team   Conference Opponent Result     S Kills Errors `Total Attacks`
#>    <chr>     <chr>      <chr>  <chr>  <chr>      <chr>    <chr>  <dbl> <dbl>  <dbl>           <dbl>
#>  1 2024-2025 08/27/2024 585290 Nebra… Big Ten    Kentuck… W 3-1      4    47     16             120
#>  2 2024-2025 08/30/2024 585290 Nebra… Big Ten    A&M-Cor… W 3-0      3    48      7              96
#>  3 2024-2025 08/31/2024 585290 Nebra… Big Ten    TCU      W 3-1      4    55     25             141
#>  4 2024-2025 09/03/2024 585290 Nebra… Big Ten    @ SMU    L 0-3      3    36     18             105
#>  5 2024-2025 09/05/2024 585290 Nebra… Big Ten    The Cit… W 3-0      3    43      7              98
#>  6 2024-2025 09/07/2024 585290 Nebra… Big Ten    Montana… W 3-0      3    47     11              90
#>  7 2024-2025 09/10/2024 585290 Nebra… Big Ten    Creight… W 3-2      5    73     27             193
#>  8 2024-2025 09/13/2024 585290 Nebra… Big Ten    Arizona… W 3-0      3    48     12             113
#>  9 2024-2025 09/14/2024 585290 Nebra… Big Ten    Wichita… W 3-0      3    50      8              88
#> 10 2024-2025 09/18/2024 585290 Nebra… Big Ten    Stanford W 3-0      3    38     13              95
#> # ℹ 26 more rows
#> # ℹ 12 more variables: `Hit Pct` <dbl>, Assists <dbl>, Aces <dbl>, SErr <dbl>, Digs <dbl>,
#> #   RetAtt <dbl>, RErr <dbl>, `Block Solos` <dbl>, `Block Assists` <dbl>, BErr <dbl>, PTS <dbl>,
#> #   BHE <dbl>

Player match stats

Similarly, you can get match stats for each player in a single match.
But to do this, you must know the NCAA’s contest ID for the particular
match or matches that you’re interested in. Use the
find_team_contests() function to return a data frame of all
of the matches for a particular team and season, along with the contest
IDs.

(neb2024contests <- find_team_id(team = "Nebraska", year = 2024) |>
  find_team_contests())
#> # A tibble: 36 × 6
#>    date       team     opponent           result attendance contest
#>    <chr>      <chr>    <chr>              <chr>       <dbl> <chr>  
#>  1 08/27/2024 Nebraska Kentucky           W 3-1        9280 5362360
#>  2 08/30/2024 Nebraska A&M-Corpus Christi W 3-0        8956 5362361
#>  3 08/31/2024 Nebraska TCU                W 3-1        8695 5362362
#>  4 09/03/2024 Nebraska SMU                L 0-3        6773 5362363
#>  5 09/05/2024 Nebraska The Citadel        W 3-0        8607 5362364
#>  6 09/07/2024 Nebraska Montana St.        W 3-0        8456 5362365
#>  7 09/10/2024 Nebraska Creighton          W 3-2        8924 5362366
#>  8 09/13/2024 Nebraska Arizona St.        W 3-0        8772 5362367
#>  9 09/14/2024 Nebraska Wichita St.        W 3-0        8541 5362368
#> 10 09/18/2024 Nebraska Stanford           W 3-0        8952 5362369
#> # ℹ 26 more rows

Once we have the contest IDs, we can grab one and pass it to
player_match_stats().

player_match_stats(contest = "6080708")
#> # A tibble: 25 × 27
#>    Season    Date       ContestID Team    Conference `Opponent Team` `Opponent Conference` Location
#>    <chr>     <date>     <chr>     <chr>   <chr>      <chr>           <chr>                 <chr>   
#>  1 2024-2025 2024-12-19 6080708   Penn S… Big Ten    Nebraska        Big Ten               Away    
#>  2 2024-2025 2024-12-19 6080708   Penn S… Big Ten    Nebraska        Big Ten               Away    
#>  3 2024-2025 2024-12-19 6080708   Penn S… Big Ten    Nebraska        Big Ten               Away    
#>  4 2024-2025 2024-12-19 6080708   Penn S… Big Ten    Nebraska        Big Ten               Away    
#>  5 2024-2025 2024-12-19 6080708   Penn S… Big Ten    Nebraska        Big Ten               Away    
#>  6 2024-2025 2024-12-19 6080708   Penn S… Big Ten    Nebraska        Big Ten               Away    
#>  7 2024-2025 2024-12-19 6080708   Penn S… Big Ten    Nebraska        Big Ten               Away    
#>  8 2024-2025 2024-12-19 6080708   Penn S… Big Ten    Nebraska        Big Ten               Away    
#>  9 2024-2025 2024-12-19 6080708   Penn S… Big Ten    Nebraska        Big Ten               Away    
#> 10 2024-2025 2024-12-19 6080708   Penn S… Big Ten    Nebraska        Big Ten               Away    
#> # ℹ 15 more rows
#> # ℹ 19 more variables: Number <dbl>, Player <chr>, P <chr>, S <int>, Kills <int>, Errors <int>,
#> #   TotalAttacks <int>, HitPct <dbl>, Assists <int>, Aces <int>, SErr <int>, Digs <int>,
#> #   RetAtt <int>, RErr <int>, BlockSolos <int>, BlockAssists <int>, BErr <int>, PTS <dbl>,
#> #   BHE <int>
…
Aggregating data

Though the season, match, and play-by-play data are useful at the
individual level, they can be more useful when aggregated. The
group_stats() function aggregates season, match, and
play-by-play data over multiple teams and/or years by applying the
player_season_stats(), player_match_stats(),
or match_pbp() across teams and years.

group_stats(teams = c("Nebraska", "Wisconsin"), year = 2023:2024, level = "season")
#> $playerdata
#> # A tibble: 54 × 31
#>    Season    TeamID Team  Conference Number Player Yr    Pos   Ht       GP    GS     S Kills Errors
#>    <chr>     <chr>  <chr> <chr>       <dbl> <chr>  <chr> <chr> <chr> <dbl> <dbl> <dbl> <dbl>  <dbl>
#>  1 2023-2024 558878 Nebr… Big Ten         2 Berge… Fr    S     6-1      35    35   121    70     19
#>  2 2023-2024 558878 Nebr… Big Ten         5 Rebek… So    MB    6-4      32    31   105   185     61
#>  3 2023-2024 558878 Nebr… Big Ten         6 Laney… Fr    L/DS  5-3      34    33   117     0      1
#>  4 2023-2024 558878 Nebr… Big Ten         7 Maisi… So    L/DS  5-6      18     0    36     0      0
#>  5 2023-2024 558878 Nebr… Big Ten         8 Lexi … Jr    L/DS  5-5      35     0   121     1      0
#>  6 2023-2024 558878 Nebr… Big Ten         9 Kenne… Jr    S     6-0      29     0    96     1      0
#>  7 2023-2024 558878 Nebr… Big Ten        11 Hayde… So    OH    6-2       9     0    10     3      7
#>  8 2023-2024 558878 Nebr… Big Ten        13 Merri… Jr    OH    6-4      35    35   121   455    153
#>  9 2023-2024 558878 Nebr… Big Ten        14 Ally … Jr    OH    6-5      30     2    87   196     91
#> 10 2023-2024 558878 Nebr… Big Ten        15 Andi … Fr    MB    6-3      34    34   118   237     67
#> # ℹ 44 more rows
#> # ℹ 17 more variables: `Total Attacks` <dbl>, `Hit Pct` <dbl>, Assists <dbl>, Aces <dbl>,
#> #   SErr <dbl>, Digs <dbl>, RetAtt <dbl>, RErr <dbl>, `Block Solos` <dbl>, `Block Assists` <dbl>,
#> #   BErr <dbl>, PTS <dbl>, BHE <dbl>, `Trpl Dbl` <dbl>, `Dbl Dbl` <dbl>, Hometown <chr>,
#> #   `High School` <chr>
…
We don’t have other examples, because these take a while to run.

There are also convenience functions conference_stats()
and division_stats() that automatically extract data for a
particular conference or NCAA division.

conference_stats(year = 2024, conf = "Big Ten", level = "season")
#> $playerdata
#> # A tibble: 274 × 30
#>    Season    TeamID Team    Conference Number Player Yr    Pos   Ht    Hometown `High School`    GP
#>    <chr>     <chr>  <chr>   <chr>       <dbl> <chr>  <chr> <chr> <chr> <chr>    <chr>         <dbl>
#>  1 2024-2025 585233 Illino… Big Ten         2 Raege… Sr    S     5-10  Sioux F… O'Gorman         31
#>  2 2024-2025 585233 Illino… Big Ten         3 Lily … So    L/DS  5-6   Emden, … University       26
#>  3 2024-2025 585233 Illino… Big Ten         4 Bianc… So    S     5-8   Orland … Carl Sandburg     9
#>  4 2024-2025 585233 Illino… Big Ten         5 Taylo… Fr    OH    6-4   Kelowna… Okanagan Mis…    11
#>  5 2024-2025 585233 Illino… Big Ten         8 Averi… Jr    OH    6-2   Bloomin… Normal Commu…    31
#>  6 2024-2025 585233 Illino… Big Ten        10 Carol… Sr    L/DS  5-11  Napervi… Benet Academy     8
#>  7 2024-2025 585233 Illino… Big Ten        11 Cari … So    MB    6-4   Ann Arb… Skyline          31
#>  8 2024-2025 585233 Illino… Big Ten        12 Raina… Sr    OH    6-1   Marengo… Highland         31
#>  9 2024-2025 585233 Illino… Big Ten        13 Kenzi… Fr    L/DS  5-7   Cincinn… Mount Notre …     2
#> 10 2024-2025 585233 Illino… Big Ten        16 Ashly… Fr    MB    6-4   Greenvi… DH Conley        31
#> # ℹ 264 more rows
#> # ℹ 18 more variables: GS <dbl>, S <dbl>, Kills <dbl>, Errors <dbl>, `Total Attacks` <dbl>,
#> #   `Hit Pct` <dbl>, Assists <dbl>, Aces <dbl>, SErr <dbl>, Digs <dbl>, RetAtt <dbl>, RErr <dbl>,
#> #   `Block Solos` <dbl>, `Block Assists` <dbl>, BErr <dbl>, PTS <dbl>, BHE <dbl>, `Trpl Dbl` <dbl>
…
