…
#> 
#> $coach
#>               Name         Alma mater            Seasons             Record 
#>        "John Cook" "San Diego - 1979"               "32"          "883-176" 
#> 
#> $record
#>      Overall record      Overall streak   Conference record   Conference streak         Home record 
#>      "33-3 (0.917)"        "Streak: L1"      "19-1 (0.950)"        "Streak: L1"      "22-0 (1.000)" 
#>         Home streak         Road record         Road streak      Neutral record      Neutral streak 
#>       "Streak: W45"      "10-2 (0.833)"        "Streak: W1"       "1-1 (0.500)"        "Streak: L1" 
#> Non-division record Non-division streak 
#>       "0-0 (0.000)"         "Streak: 0" 
#> 
#> $schedule
#> # A tibble: 36 × 4
#>    Date       Opponent                 Result Attendance
#>    <chr>      <chr>                    <chr>  <chr>     
#>  1 08/27/2024 Kentucky @Louisville, KY W 3-1  9,280     
#>  2 08/30/2024 A&M-Corpus Christi       W 3-0  8,956     
#>  3 08/31/2024 TCU                      W 3-1  8,695     
#>  4 09/03/2024 @ SMU                    L 0-3  6,773     
#>  5 09/05/2024 The Citadel              W 3-0  8,607     
#>  6 09/07/2024 Montana St.              W 3-0  8,456     
#>  7 09/10/2024 Creighton                W 3-2  8,924     
#>  8 09/13/2024 Arizona St.              W 3-0  8,772     
#>  9 09/14/2024 Wichita St.              W 3-0  8,541     
#> 10 09/18/2024 Stanford                 W 3-0  8,952     
#> # ℹ 26 more rows
```
…
In addition to overall season summary stats, the NCAA provides
match-level data for both teams and individual players.

### Team match stats

To get overall match stats for a team in a particular season, use
[`team_match_stats()`](https://jeffreyrstevens.github.io/ncaavolleyballr/reference/team_match_stats.md).
Note that to run this function relies on the
[`{chromote}`](https://rstudio.github.io/chromote/) package, so you must
have Google Chrome installed on your computer.

``` r
find_team_id(team = "Nebraska", year = 2024) |>
  team_match_stats()
#> # A tibble: 36 × 22
#>    Season    Date       Team     Conference Opponent   Result     S Kills Errors
#>    <chr>     <chr>      <chr>    <chr>      <chr>      <chr>  <dbl> <dbl>  <dbl>
#>  1 2024-2025 08/27/2024 Nebraska Big Ten    Kentucky … W 3-1      4    47     16
#>  2 2024-2025 08/30/2024 Nebraska Big Ten    A&M-Corpu… W 3-0      3    48      7
#>  3 2024-2025 08/31/2024 Nebraska Big Ten    TCU        W 3-1      4    55     25
#>  4 2024-2025 09/03/2024 Nebraska Big Ten    @ SMU      L 0-3      3    36     18
#>  5 2024-2025 09/05/2024 Nebraska Big Ten    The Citad… W 3-0      3    43      7
#>  6 2024-2025 09/07/2024 Nebraska Big Ten    Montana S… W 3-0      3    47     11
#>  7 2024-2025 09/10/2024 Nebraska Big Ten    Creighton  W 3-2      5    73     27
#>  8 2024-2025 09/13/2024 Nebraska Big Ten    Arizona S… W 3-0      3    48     12
#>  9 2024-2025 09/14/2024 Nebraska Big Ten    Wichita S… W 3-0      3    50      8
#> 10 2024-2025 09/18/2024 Nebraska Big Ten    Stanford   W 3-0      3    38     13
#> # ℹ 26 more rows
#> # ℹ 13 more variables: `Total Attacks` <dbl>, `Hit Pct` <dbl>, Assists <dbl>,
#> #   Aces <dbl>, SErr <dbl>, Digs <dbl>, RetAtt <dbl>, RErr <dbl>,
#> #   `Block Solos` <dbl>, `Block Assists` <dbl>, BErr <dbl>, PTS <dbl>,
#> #   BHE <dbl>
```

### Player match stats

Similarly, you can get match stats for each player in a single match.
But to do this, you must know the NCAA’s contest ID for the particular
match or matches that you’re interested in. Use the
[`find_team_contests()`](https://jeffreyrstevens.github.io/ncaavolleyballr/reference/find_team_contests.md)
function to return a data frame of all of the matches for a particular
team and season, along with the contest IDs.

``` r
(neb2024contests <- find_team_id(team = "Nebraska", year = 2024) |>
  find_team_contests())
#> # A tibble: 36 × 6
#>    date       team     opponent           result attendance contest
#>    <chr>      <chr>    <chr>              <chr>       <dbl> <chr>  
#>  1 08/27/2024 Nebraska Kentucky           W 3-1        9280 5362360
#>  2 08/30/2024 Nebraska A&M-Corpus Christi W 3-0        8956 5362361
#>  3 08/31/2024 Nebraska TCU                W 3-1        8695 5362362
#>  4 09/03/2024 Nebraska SMU                L 0-3        6773 5362363
#>  5 09/05/2024 Nebraska The Citadel        W 3-0        8607 5362364
#>  6 09/07/2024 Nebraska Montana St.        W 3-0        8456 5362365
#>  7 09/10/2024 Nebraska Creighton          W 3-2        8924 5362366
#>  8 09/13/2024 Nebraska Arizona St.        W 3-0        8772 5362367
#>  9 09/14/2024 Nebraska Wichita St.        W 3-0        8541 5362368
#> 10 09/18/2024 Nebraska Stanford           W 3-0        8952 5362369
#> # ℹ 26 more rows
```

Once we have the contest IDs, we can grab one and pass it to
[`player_match_stats()`](https://jeffreyrstevens.github.io/ncaavolleyballr/reference/player_match_stats.md).

``` r
player_match_stats(contest = "6080708")
#> # A tibble: 25 × 26
#>    Season    Date       Team   Conference `Opponent Team` `Opponent Conference` Location Number Player
#>    <chr>     <date>     <chr>  <chr>      <chr>           <chr>                 <chr>     <dbl> <chr> 
#>  1 2024-2025 2024-12-19 Penn … Big Ten    Nebraska        Big Ten               Away          2 Ava F…
#>  2 2024-2025 2024-12-19 Penn … Big Ten    Nebraska        Big Ten               Away          3 Gilli…
#>  3 2024-2025 2024-12-19 Penn … Big Ten    Nebraska        Big Ten               Away          8 Camry…
#>  4 2024-2025 2024-12-19 Penn … Big Ten    Nebraska        Big Ten               Away          5 Jorda…
#>  5 2024-2025 2024-12-19 Penn … Big Ten    Nebraska        Big Ten               Away         14 Carol…
#>  6 2024-2025 2024-12-19 Penn … Big Ten    Nebraska        Big Ten               Away         44 Maggi…
#>  7 2024-2025 2024-12-19 Penn … Big Ten    Nebraska        Big Ten               Away         24 Quinn…
#>  8 2024-2025 2024-12-19 Penn … Big Ten    Nebraska        Big Ten               Away          9 Jess …
#>  9 2024-2025 2024-12-19 Penn … Big Ten    Nebraska        Big Ten               Away         11 Jocel…
#> 10 2024-2025 2024-12-19 Penn … Big Ten    Nebraska        Big Ten               Away         21 Izzy …
#> # ℹ 15 more rows
#> # ℹ 17 more variables: P <chr>, S <int>, Kills <int>, Errors <int>, TotalAttacks <int>, HitPct <dbl>,
#> #   Assists <int>, Aces <int>, SErr <int>, Digs <int>, RetAtt <int>, RErr <int>, BlockSolos <int>,
#> #   BlockAssists <int>, BErr <int>, PTS <dbl>, BHE <int>
```
…
Though the season, match, and play-by-play data are useful at the
individual level, they can be more useful when aggregated. The
[`group_stats()`](https://jeffreyrstevens.github.io/ncaavolleyballr/reference/group_stats.md)
function aggregates season, match, and play-by-play data over multiple
teams and/or years by applying the
[`player_season_stats()`](https://jeffreyrstevens.github.io/ncaavolleyballr/reference/player_season_stats.md),
[`player_match_stats()`](https://jeffreyrstevens.github.io/ncaavolleyballr/reference/player_match_stats.md),
or
[`match_pbp()`](https://jeffreyrstevens.github.io/ncaavolleyballr/reference/match_pbp.md)
across teams and years.

``` r
group_stats(teams = c("Nebraska", "Wisconsin"), year = 2023:2024, level = "season")
#> $playerdata
#> # A tibble: 54 × 30
#>    Season    Team     Conference Number Player        Yr    Pos   Ht       GP    GS     S Kills Errors
#>    <chr>     <chr>    <chr>       <dbl> <chr>         <chr> <chr> <chr> <dbl> <dbl> <dbl> <dbl>  <dbl>
#>  1 2023-2024 Nebraska Big Ten         2 Bergen Reilly Fr    S     6-1      35    35   121    70     19
#>  2 2023-2024 Nebraska Big Ten         5 Rebekah Alli… So    MB    6-4      32    31   105   185     61
#>  3 2023-2024 Nebraska Big Ten         6 Laney Choboy  Fr    L/DS  5-3      34    33   117     0      1
#>  4 2023-2024 Nebraska Big Ten         7 Maisie Boesi… So    L/DS  5-6      18     0    36     0      0
#>  5 2023-2024 Nebraska Big Ten         8 Lexi Rodrigu… Jr    L/DS  5-5      35     0   121     1      0
#>  6 2023-2024 Nebraska Big Ten         9 Kennedi Orr   Jr    S     6-0      29     0    96     1      0
#>  7 2023-2024 Nebraska Big Ten        11 Hayden Kubik  So    OH    6-2       9     0    10     3      7
#>  8 2023-2024 Nebraska Big Ten        13 Merritt Beas… Jr    OH    6-4      35    35   121   455    153
#>  9 2023-2024 Nebraska Big Ten        14 Ally Batenho… Jr    OH    6-5      30     2    87   196     91
#> 10 2023-2024 Nebraska Big Ten        15 Andi Jackson  Fr    MB    6-3      34    34   118   237     67
#> # ℹ 44 more rows
#> # ℹ 17 more variables: `Total Attacks` <dbl>, `Hit Pct` <dbl>, Assists <dbl>, Aces <dbl>, SErr <dbl>,
#> #   Digs <dbl>, RetAtt <dbl>, RErr <dbl>, `Block Solos` <dbl>, `Block Assists` <dbl>, BErr <dbl>,
#> #   PTS <dbl>, BHE <dbl>, `Trpl Dbl` <dbl>, `Dbl Dbl` <dbl>, Hometown <chr>, `High School` <chr>
…
We don’t have other examples, because these take a while to run.

There are also convenience functions
[`conference_stats()`](https://jeffreyrstevens.github.io/ncaavolleyballr/reference/conference_stats.md)
and
[`division_stats()`](https://jeffreyrstevens.github.io/ncaavolleyballr/reference/division_stats.md)
that automatically extract data for a particular conference or NCAA
division.

``` r
conference_stats(year = 2024, conf = "Big Ten", level = "season")
#> $playerdata
#> # A tibble: 274 × 29
#>    Season    Team  Conference Number Player Yr    Pos   Ht    Hometown `High School`    GP    GS     S
#>    <chr>     <chr> <chr>       <dbl> <chr>  <chr> <chr> <chr> <chr>    <chr>         <dbl> <dbl> <dbl>
#>  1 2024-2025 Illi… Big Ten         2 Raege… Sr    S     5-10  Sioux F… O'Gorman         31     0   108
#>  2 2024-2025 Illi… Big Ten         3 Lily … So    L/DS  5-6   Emden, … University       26     1    85
#>  3 2024-2025 Illi… Big Ten         4 Bianc… So    S     5-8   Orland … Carl Sandburg     9     0    21
#>  4 2024-2025 Illi… Big Ten         5 Taylo… Fr    OH    6-4   Kelowna… Okanagan Mis…    11     0    16
#>  5 2024-2025 Illi… Big Ten         8 Averi… Jr    OH    6-2   Bloomin… Normal Commu…    31    31   114
#>  6 2024-2025 Illi… Big Ten        10 Carol… Sr    L/DS  5-11  Napervi… Benet Academy     8     0    31
#>  7 2024-2025 Illi… Big Ten        11 Cari … So    MB    6-4   Ann Arb… Skyline          31    31   114
#>  8 2024-2025 Illi… Big Ten        12 Raina… Sr    OH    6-1   Marengo… Highland         31    31   114
#>  9 2024-2025 Illi… Big Ten        13 Kenzi… Fr    L/DS  5-7   Cincinn… Mount Notre …     2     0     2
#> 10 2024-2025 Illi… Big Ten        16 Ashly… Fr    MB    6-4   Greenvi… DH Conley        31    31   114
#> # ℹ 264 more rows
#> # ℹ 16 more variables: Kills <dbl>, Errors <dbl>, `Total Attacks` <dbl>, `Hit Pct` <dbl>,
#> #   Assists <dbl>, Aces <dbl>, SErr <dbl>, Digs <dbl>, RetAtt <dbl>, RErr <dbl>, `Block Solos` <dbl>,
#> #   `Block Assists` <dbl>, BErr <dbl>, PTS <dbl>, BHE <dbl>, `Trpl Dbl` <dbl>
…
